{
  "status": 0,
  "pageFrom": 10,
  "pageTo": 20,
  "total": 90,
  "pageIndex": 1,
  "totalPage": 9,
  "pageSize": 10,
  "datas": [
    {
      "ID": "1",
      "identityCard": "234465454324",
      "personName": "李狗蛋",
      "sex": "1",
      "age": "1",
      "fillTable": "11",
      "notFillTable": "11",
      "hosp": [
        {
          "ID": "1",
          "hospName": "医院一",
          "inHospDate": "2018-01-01",
          "outHospDate": "2018-05-05",
          "notFillTable": "3",
          "tables": [{
            "ID": "1",
            "tableName": "无锡市XX医院1月入院申请表",
            "type": "0",
            "lookType": "2",
            "auditStatus": "0",
            "tableStatus": "0",
            "tableStatusName": "",
            "initPerson": "李狗蛋",
            "initDate": "2018-01-01",
            "pigeonholeDate": "2018-01-01",
            "inHospTableId": "11"
          },{
            "ID": "2",
            "tableName": "无锡市XX医院1月入院申请表",
            "type": "1",
            "lookType": "1",
            "auditStatus": "1",
            "tableStatus": "1",
            "tableStatusName": "",
            "initPerson": "李狗蛋",
            "initDate": "2018-01-01",
            "pigeonholeDate": "2018-01-01",
            "inHospTableId": "11"
          }]
        },
        {
          "ID": "2",
          "hospName": "医院一",
          "inHospDate": "2018-01-01",
          "outHospDate": "2018-05-05",
          "notFillTable": "3",
          "tables": [{
            "ID": "1",
            "tableName": "无锡市XX医院1月入院申请表",
            "type": "0",
            "lookType": "2",
            "auditStatus": "0",
            "tableStatus": "0",
            "tableStatusName": "",
            "initPerson": "李狗蛋",
            "initDate": "2018-01-01",
            "pigeonholeDate": "2018-01-01",
            "inHospTableId": "11"
          },{
            "ID": "2",
            "tableName": "无锡市XX医院1月入院申请表",
            "type": "0",
            "lookType": "2",
            "auditStatus": "0",
            "tableStatus": "0",
            "tableStatusName": "",
            "initPerson": "李狗蛋",
            "initDate": "2018-01-01",
            "pigeonholeDate": "2018-01-01",
            "inHospTableId": "11"
          }]
        }
      ]
    }

  ]
}