{
  "status": 0,
  "pageFrom": 10,
  "pageTo": 20,
  "total": 90,
  "pageIndex": 1,
  "totalPage": 9,
  "pageSize": 10,
  "datas": [
    {
      "ID":1,
      "nurseMonthFrom": "2018-05-01",
      "nurseMonthTo": "2018-05-11",
      "isActive": true
    },{
      "ID":2,
      "nurseMonthFrom": "2018-05-01",
      "nurseMonthTo": "2018-05-11",
      "isActive": true
    },{
      "ID":3,
      "nurseMonthFrom": "2018-05-01",
      "nurseMonthTo": "2018-05-11",
      "isActive": true
    }
  ]
}