{
  "status": 0,
  "pageFrom": 10,
  "pageTo": 20,
  "total": 90,
  "pageIndex": 1,
  "totalPage": 9,
  "pageSize": 10,
  "datas": [
    {
      "ID": 1,
      "inHospTableId": 1,
      "titile": "无锡市康复医院-0416",
      "personName": "张三",
      "node": "1",
      "initPerson": "李狗蛋",
      "initDate": "2018-7-1",
      "auditDate": "2018-7-1",
      "flowStatus": "0",
      "flowType": "0",
      "backCause": "退回",
      "nodeName": "",
      "flowStatusName": "",
      "flowTypeName": ""
    },
    {
      "inHospTableId": 2,
      "ID": 2,
      "titile": "无锡市康复医院-0416",
      "personName": "张三",
      "node": "1",
      "initPerson": "李狗蛋",
      "initDate": "2018-7-1",
      "auditDate": "2018-7-1",
      "flowStatus": "2",
      "flowType": "0",
      "backCause": "退回",
      "nodeName": "",
      "flowStatusName": "",
      "flowTypeName": ""
    },
    {
      "inHospTableId": 3,
      "ID": 3,
      "titile": "无锡市康复医院-0416",
      "personName": "张三",
      "node": "1",
      "initPerson": "李狗蛋",
      "initDate": "2018-7-1",
      "auditDate": "2018-7-1",
      "flowStatus": "1",
      "flowType": "1",
      "backCause": "我就是不满意，我就是想退回",
      "nodeName": "",
      "flowStatusName": "",
      "flowTypeName": ""
    },
    {
      "inHospTableId": 4,
      "ID": 4,
      "titile": "无锡市康复医院-0416",
      "personName": "张三",
      "node": "1",
      "initPerson": "李狗蛋",
      "initDate": "2018-7-1",
      "auditDate": "2018-7-1",
      "flowStatus": "2",
      "flowType": "1",
      "backCause": "退回",
      "nodeName": "",
      "flowStatusName": "",
      "flowTypeName": ""
    }
  ]
}