{
  "status": 0,
  "pageFrom": 10,
  "pageTo": 20,
  "total": 90,
  "pageIndex": 1,
  "totalPage": 9,
  "pageSize": 10,
  "datas": [
    {
      "ID":1,
      "personName": "张三",
      "identityCard": "42282218267775-1"
    },
    {
      "ID":2,
      "personName": "张三2",
      "identityCard": "42282218267775-2"
    },
    {
      "ID":3,
      "personName": "张三3",
      "identityCard": "42282218267775-3"
    }
  ]
}